
______            _           _____      _ _
| ___ \          | |         /  ___|    | | |
| |_/ /__ _ _ __ | | ________\ `--.  ___| | | ___ _ __ ___
|    // _` | '_ \| |/ /______|`--. \/ _ \ | |/ _ \ '__/ __|
| |\ \ (_| | | | |   <       /\__/ /  __/ | |  __/ |  \__ \
\_| \_\__,_|_| |_|_|\_\      \____/ \___|_|_|\___|_|  |___/


